<?xml version="1.0" encoding="UTF-8" standalone="no"?>
<!-- Created with Inkscape (http://www.inkscape.org/) -->

<svg
   xmlns:dc="http://purl.org/dc/elements/1.1/"
   xmlns:cc="http://creativecommons.org/ns#"
   xmlns:rdf="http://www.w3.org/1999/02/22-rdf-syntax-ns#"
   xmlns:svg="http://www.w3.org/2000/svg"
   xmlns="http://www.w3.org/2000/svg"
   xmlns:sodipodi="http://sodipodi.sourceforge.net/DTD/sodipodi-0.dtd"
   xmlns:inkscape="http://www.inkscape.org/namespaces/inkscape"
   width="145mm"
   height="145mm"
   viewBox="0 0 145 145"
   version="1.1"
   id="svg8"
   sodipodi:docname="icon.svg"
   inkscape:version="0.92.4 5da689c313, 2019-01-14">
  <defs
     id="defs2" />
  <sodipodi:namedview
     id="base"
     pagecolor="#757778"
     bordercolor="#666666"
     borderopacity="1.0"
     inkscape:pageopacity="0"
     inkscape:pageshadow="2"
     inkscape:zoom="1"
     inkscape:cx="249.88397"
     inkscape:cy="240.80504"
     inkscape:document-units="mm"
     inkscape:current-layer="layer2"
     showgrid="false"
     inkscape:window-width="1920"
     inkscape:window-height="989"
     inkscape:window-x="1920"
     inkscape:window-y="72"
     inkscape:window-maximized="0"
     units="mm" />
  <metadata
     id="metadata5">
    <rdf:RDF>
      <cc:Work
         rdf:about="">
        <dc:format>image/svg+xml</dc:format>
        <dc:type
           rdf:resource="http://purl.org/dc/dcmitype/StillImage" />
        <dc:title></dc:title>
      </cc:Work>
    </rdf:RDF>
  </metadata>
  <g
     inkscape:groupmode="layer"
     id="layer2"
     inkscape:label="Ebene 2"
     style="display:inline"
     transform="translate(0,-152)">
    <path
       style="fill:#4a9a5a;fill-opacity:1;stroke:#daf8e0;stroke-width:8.46666622;stroke-miterlimit:4;stroke-dasharray:none;stroke-opacity:1"
       d="M 123.05736,253.41014 C 104.04534,286.33993 74.196533,304.69987 39.053849,284.41023 3.9111593,264.12059 4.8869293,229.0908 23.898952,196.16101 c 19.012024,-32.92979 49.355691,-51.43609 84.003518,-31.00009 34.64783,20.436 34.16691,55.31944 15.15489,88.24922 z"
       id="path4632"
       inkscape:connector-curvature="0"
       sodipodi:nodetypes="szszs" />
  </g>
  <g
     inkscape:label="Ebene 1"
     inkscape:groupmode="layer"
     id="layer1"
     style="display:inline"
     transform="translate(0,-152)">
    <path
       sodipodi:type="star"
       id="path4538"
       sodipodi:sides="6"
       sodipodi:cx="107.34523"
       sodipodi:cy="147.29962"
       sodipodi:r1="36.50098"
       sodipodi:r2="31.610779"
       sodipodi:arg1="-2.0943951"
       sodipodi:arg2="-1.5707963"
       inkscape:flatsided="true"
       inkscape:rounded="0"
       inkscape:randomized="0"
       d="m 89.09474,115.68885 36.50098,0 18.25049,31.61077 -18.25049,31.61078 -36.50098,0 -18.25049,-31.61078 z"
       inkscape:transform-center-x="3.4258291e-06"
       inkscape:transform-center-y="-6.306027e-06"
       style="fill:none;stroke:#daf8e0;stroke-width:6.3499999;stroke-miterlimit:4;stroke-dasharray:none;stroke-opacity:1"
       transform="rotate(30,-55.234874,122.56208)" />
    <path
       style="fill:none;stroke:#daf8e0;stroke-width:6.3499999;stroke-linecap:butt;stroke-linejoin:miter;stroke-miterlimit:4;stroke-dasharray:none;stroke-opacity:1"
       d="m 104.80563,207.02498 24.67608,-14.24674"
       id="path4756"
       inkscape:connector-curvature="0" />
    <path
       style="display:inline;fill:none;stroke:#daf8e0;stroke-width:6.3499999;stroke-linecap:butt;stroke-linejoin:miter;stroke-miterlimit:4;stroke-dasharray:none;stroke-opacity:1"
       d="M 73.194853,188.77449 V 160.28102"
       id="path4756-3"
       inkscape:connector-curvature="0" />
    <path
       style="display:inline;fill:none;stroke:#daf8e0;stroke-width:6.3499999;stroke-linecap:butt;stroke-linejoin:miter;stroke-miterlimit:4;stroke-dasharray:none;stroke-opacity:1"
       d="m 73.194853,261.77645 1e-5,28.49348"
       id="path4756-5"
       inkscape:connector-curvature="0" />
    <path
       style="display:inline;fill:none;stroke:#daf8e0;stroke-width:6.3499999;stroke-linecap:butt;stroke-linejoin:miter;stroke-miterlimit:4;stroke-dasharray:none;stroke-opacity:1"
       d="M 41.58408,243.52596 16.908006,257.7727"
       id="path4756-5-6"
       inkscape:connector-curvature="0" />
    <path
       style="fill:none;stroke:#daf8e0;stroke-width:6.3499999;stroke-linecap:butt;stroke-linejoin:miter;stroke-miterlimit:4;stroke-dasharray:none;stroke-opacity:1"
       d="m 104.80563,243.52596 17.48977,10.09772"
       id="path4803"
       inkscape:connector-curvature="0" />
    <path
       style="display:inline;fill:none;stroke:#daf8e0;stroke-width:6.3499999;stroke-linecap:butt;stroke-linejoin:miter;stroke-miterlimit:4;stroke-dasharray:none;stroke-opacity:1"
       d="M 41.584082,207.02498 24.094309,196.92725"
       id="path4803-2"
       inkscape:connector-curvature="0" />
  </g>
</svg>
