<?xml version="1.0" encoding="UTF-8" standalone="no"?>
<svg
   xmlns:dc="http://purl.org/dc/elements/1.1/"
   xmlns:cc="http://creativecommons.org/ns#"
   xmlns:rdf="http://www.w3.org/1999/02/22-rdf-syntax-ns#"
   xmlns:svg="http://www.w3.org/2000/svg"
   xmlns="http://www.w3.org/2000/svg"
   id="svg8"
   version="1.1"
   viewBox="0 0 140.164 140.386"
   height="140.386mm"
   width="140.164mm">
  <defs
     id="defs2" />
  <metadata
     id="metadata5">
    <rdf:RDF>
      <cc:Work
         rdf:about="">
        <dc:format>image/svg+xml</dc:format>
        <dc:type
           rdf:resource="http://purl.org/dc/dcmitype/StillImage" />
        <dc:title></dc:title>
      </cc:Work>
    </rdf:RDF>
  </metadata>
  <g
     transform="translate(0,-156.614)"
     style="display:inline"
     id="layer2">
    <path
       id="path4632"
       d="m 110.67171,267.29079 c -26.887059,26.88706 -60.470688,36.89596 -89.164572,8.20208 -28.6938873,-28.69389 -18.6849893,-62.27752 8.202073,-89.16458 26.887063,-26.88706 60.98658,-36.90925 89.164579,-8.20208 28.17801,28.70718 18.68498,62.27752 -8.20208,89.16458 z"
       style="fill:#4a9a5a;fill-opacity:1;stroke:#daf8e0;stroke-width:8.46666622;stroke-miterlimit:4;stroke-dasharray:none;stroke-opacity:1" />
  </g>
  <g
     transform="translate(0,-156.614)"
     style="display:inline"
     id="layer1">
    <path
       transform="rotate(45,-7.8920299,141.92137)"
       style="fill:none;stroke:#daf8e0;stroke-width:6.3499999;stroke-miterlimit:4;stroke-dasharray:none;stroke-opacity:1"
       d="m 89.09474,115.68885 36.50098,0 18.25049,31.61077 -18.25049,31.61078 -36.50098,0 -18.25049,-31.61078 z"
       id="path4538" />
    <path
       id="path4756"
       d="m 105.04726,217.76227 27.52259,-7.37466"
       style="fill:none;stroke:#daf8e0;stroke-width:6.3499999;stroke-linecap:butt;stroke-linejoin:miter;stroke-miterlimit:4;stroke-dasharray:none;stroke-opacity:1" />
    <path
       id="path4756-3"
       d="m 79.237171,191.95218 7.37465,-27.52259"
       style="display:inline;fill:none;stroke:#daf8e0;stroke-width:6.3499999;stroke-linecap:butt;stroke-linejoin:miter;stroke-miterlimit:4;stroke-dasharray:none;stroke-opacity:1" />
    <path
       id="path4756-5"
       d="m 60.34287,262.46666 -7.37465,27.52258"
       style="display:inline;fill:none;stroke:#daf8e0;stroke-width:6.3499999;stroke-linecap:butt;stroke-linejoin:miter;stroke-miterlimit:4;stroke-dasharray:none;stroke-opacity:1" />
    <path
       id="path4756-5-6"
       d="M 34.53278,236.65657 7.0101967,244.03122"
       style="display:inline;fill:none;stroke:#daf8e0;stroke-width:6.3499999;stroke-linecap:butt;stroke-linejoin:miter;stroke-miterlimit:4;stroke-dasharray:none;stroke-opacity:1" />
    <path
       id="path4803"
       d="m 95.600111,253.01951 14.280339,14.28034"
       style="fill:none;stroke:#daf8e0;stroke-width:6.3499999;stroke-linecap:butt;stroke-linejoin:miter;stroke-miterlimit:4;stroke-dasharray:none;stroke-opacity:1" />
    <path
       id="path4803-2"
       d="M 43.979932,201.39933 29.699592,187.11899"
       style="display:inline;fill:none;stroke:#daf8e0;stroke-width:6.3499999;stroke-linecap:butt;stroke-linejoin:miter;stroke-miterlimit:4;stroke-dasharray:none;stroke-opacity:1" />
  </g>
</svg>
